Démo d’utilisation de R6 pour créer des modèles de machine learning
…
model <- PoissonGLM$new(features = c("CarAge", "DriverAge"), response_name = "ClaimNb", expo_name = "Exposure") # Initialiser le nouvel objet
model$fit_model(data_train) # Ajuster sur data_train
model$print_summary()

## # A tibble: 3 × 5
##   term        estimate std.error statistic  p.value
##   <chr>          <dbl>     <dbl>     <dbl>    <dbl>
## 1 (Intercept)  -2.05    0.0345      -59.5  0       
## 2 CarAge       -0.0140  0.00174      -8.05 8.01e-16
## 3 DriverAge    -0.0110  0.000669    -16.4  9.71e-61

model$predict(data_test) # Prédire sur data_test

## # A tibble: 123,951 × 1
##       .pred
##       <dbl>
##  1 0.0677  
##  2 0.000895
##  3 0.0482  
##  4 0.00962 
##  5 0.0587  
##  6 0.0564  
##  7 0.0610  
##  8 0.00677 
##  9 0.0429  
## 10 0.0331  
## # ℹ 123,941 more rows

On peut aussi enchaîner les méthodes:

model <- PoissonGLM$new(features = c("CarAge", "DriverAge"), response_name = "ClaimNb", expo_name = "Exposure") # Initialiser le nouvel objet
model$fit_model(data_train)$predict(data_test)

## # A tibble: 123,951 × 1
##       .pred
##       <dbl>
##  1 0.0677  
##  2 0.000895
##  3 0.0482  
##  4 0.00962 
##  5 0.0587  
##  6 0.0564  
##  7 0.0610  
##  8 0.00677 
##  9 0.0429  
## 10 0.0331  
## # ℹ 123,941 more rows
…
